{
  "runtimeTarget": {
    "name": ".NETCoreApp,Version=v2.2",
    "signature": "8dddc45326978e528ee5e077011e0464e0f5a9aa"
  },
  "compilationOptions": {},
  "targets": {
    ".NETCoreApp,Version=v2.2": {
      "Storage.Net.Microsoft.Azure.Storage/1.0.0": {
        "dependencies": {
          "Newtonsoft.Json": "12.0.1",
          "Storage.Net": "1.0.0",
          "WindowsAzure.Storage": "9.3.3"
        },
        "runtime": {
          "Storage.Net.Microsoft.Azure.Storage.dll": {}
        }
      },
      "Microsoft.Extensions.Configuration/2.2.0": {
        "dependencies": {
          "Microsoft.Extensions.Configuration.Abstractions": "2.2.0"
        },
        "runtime": {
          "lib/netstandard2.0/Microsoft.Extensions.Configuration.dll": {
            "assemblyVersion": "2.2.0.0",
            "fileVersion": "2.2.0.18315"
          }
        }
      },
      "Microsoft.Extensions.Configuration.Abstractions/2.2.0": {
        "dependencies": {
          "Microsoft.Extensions.Primitives": "2.2.0"
        },
        "runtime": {
          "lib/netstandard2.0/Microsoft.Extensions.Configuration.Abstractions.dll": {
            "assemblyVersion": "2.2.0.0",
            "fileVersion": "2.2.0.18315"
          }
        }
      },
      "Microsoft.Extensions.Configuration.FileExtensions/2.2.0": {
        "dependencies": {
          "Microsoft.Extensions.Configuration": "2.2.0",
          "Microsoft.Extensions.FileProviders.Physical": "2.2.0"
        },
        "runtime": {
          "lib/netstandard2.0/Microsoft.Extensions.Configuration.FileExtensions.dll": {
            "assemblyVersion": "2.2.0.0",
            "fileVersion": "2.2.0.18315"
          }
        }
      },
      "Microsoft.Extensions.Configuration.Json/2.2.0": {
        "dependencies": {
          "Microsoft.Extensions.Configuration": "2.2.0",
          "Microsoft.Extensions.Configuration.FileExtensions": "2.2.0",
          "Newtonsoft.Json": "12.0.1"
        },
        "runtime": {
          "lib/netstandard2.0/Microsoft.Extensions.Configuration.Json.dll": {
            "assemblyVersion": "2.2.0.0",
            "fileVersion": "2.2.0.18315"
          }
        }
      },
      "Microsoft.Extensions.FileProviders.Abstractions/2.2.0": {
        "dependencies": {
          "Microsoft.Extensions.Primitives": "2.2.0"
        },
        "runtime": {
          "lib/netstandard2.0/Microsoft.Extensions.FileProviders.Abstractions.dll": {
            "assemblyVersion": "2.2.0.0",
            "fileVersion": "2.2.0.18315"
          }
        }
      },
      "Microsoft.Extensions.FileProviders.Physical/2.2.0": {
        "dependencies": {
          "Microsoft.Extensions.FileProviders.Abstractions": "2.2.0",
          "Microsoft.Extensions.FileSystemGlobbing": "2.2.0"
        },
        "runtime": {
          "lib/netstandard2.0/Microsoft.Extensions.FileProviders.Physical.dll": {
            "assemblyVersion": "2.2.0.0",
            "fileVersion": "2.2.0.18315"
          }
        }
      },
      "Microsoft.Extensions.FileSystemGlobbing/2.2.0": {
        "runtime": {
          "lib/netstandard2.0/Microsoft.Extensions.FileSystemGlobbing.dll": {
            "assemblyVersion": "2.2.0.0",
            "fileVersion": "2.2.0.18315"
          }
        }
      },
      "Microsoft.Extensions.Primitives/2.2.0": {
        "dependencies": {
          "System.Memory": "4.5.1",
          "System.Runtime.CompilerServices.Unsafe": "4.5.1"
        },
        "runtime": {
          "lib/netstandard2.0/Microsoft.Extensions.Primitives.dll": {
            "assemblyVersion": "2.2.0.0",
            "fileVersion": "2.2.0.18315"
          }
        }
      },
      "NetBox/2.1.4": {
        "runtime": {
          "lib/netstandard2.0/NetBox.dll": {
            "assemblyVersion": "2.0.0.0",
            "fileVersion": "2.1.4.54"
          }
        }
      },
      "Newtonsoft.Json/12.0.1": {
        "runtime": {
          "lib/netstandard2.0/Newtonsoft.Json.dll": {
            "assemblyVersion": "12.0.0.0",
            "fileVersion": "12.0.1.22727"
          }
        }
      },
      "System.Memory/4.5.1": {},
      "System.Runtime.CompilerServices.Unsafe/4.5.1": {
        "runtime": {
          "lib/netcoreapp2.0/System.Runtime.CompilerServices.Unsafe.dll": {
            "assemblyVersion": "4.0.4.0",
            "fileVersion": "0.0.0.0"
          }
        }
      },
      "WindowsAzure.Storage/9.3.3": {
        "dependencies": {
          "Newtonsoft.Json": "12.0.1"
        },
        "runtime": {
          "lib/netstandard1.3/Microsoft.WindowsAzure.Storage.dll": {
            "assemblyVersion": "9.3.2.0",
            "fileVersion": "9.3.2.0"
          }
        }
      },
      "Storage.Net/1.0.0": {
        "dependencies": {
          "Microsoft.Extensions.Configuration": "2.2.0",
          "Microsoft.Extensions.Configuration.FileExtensions": "2.2.0",
          "Microsoft.Extensions.Configuration.Json": "2.2.0",
          "NetBox": "2.1.4",
          "Newtonsoft.Json": "12.0.1"
        },
        "runtime": {
          "Storage.Net.dll": {}
        }
      }
    }
  },
  "libraries": {
    "Storage.Net.Microsoft.Azure.Storage/1.0.0": {
      "type": "project",
      "serviceable": false,
      "sha512": ""
    },
    "Microsoft.Extensions.Configuration/2.2.0": {
      "type": "package",
      "serviceable": true,
      "sha512": "sha512-0MtJgCZ5tIw7LoxOlXlifwVTwfMd4YdMJ9+DVZyX/fqqXO9zseZ8hH2WxbJzDbBDp45nA8rwHlL4JH/6Z98B4w==",
      "path": "microsoft.extensions.configuration/2.2.0",
      "hashPath": "microsoft.extensions.configuration.2.2.0.nupkg.sha512"
    },
    "Microsoft.Extensions.Configuration.Abstractions/2.2.0": {
      "type": "package",
      "serviceable": true,
      "sha512": "sha512-M6u4cMWXxPtqyJJ03oezyqTORmSgTPpa2gZRKkEGCXXHhyGnM1cHjPTzq5sevYS1VJEMb2TZj60mAc+hDoPPcQ==",
      "path": "microsoft.extensions.configuration.abstractions/2.2.0",
      "hashPath": "microsoft.extensions.configuration.abstractions.2.2.0.nupkg.sha512"
    },
    "Microsoft.Extensions.Configuration.FileExtensions/2.2.0": {
      "type": "package",
      "serviceable": true,
      "sha512": "sha512-BnkmTopJ7m+p0/EBshdJmoWroUvMlu+oA+bDvzEWh3WA9rOYdnTZueQ7Ap1oSfUnHnPBnuWae/ED8hHlM/sQxA==",
      "path": "microsoft.extensions.configuration.fileextensions/2.2.0",
      "hashPath": "microsoft.extensions.configuration.fileextensions.2.2.0.nupkg.sha512"
    },
    "Microsoft.Extensions.Configuration.Json/2.2.0": {
      "type": "package",
      "serviceable": true,
      "sha512": "sha512-CqqFzpFuW9rOWOHI9c3JrGrOOogfLRrGTWVU2AIFkxXRQ/bAg5lL3WabkVEywmTRo58AI3p6sT0ACNy9s279VA==",
      "path": "microsoft.extensions.configuration.json/2.2.0",
      "hashPath": "microsoft.extensions.configuration.json.2.2.0.nupkg.sha512"
    },
    "Microsoft.Extensions.FileProviders.Abstractions/2.2.0": {
      "type": "package",
      "serviceable": true,
      "sha512": "sha512-33vTyijzAVEfbuNFts68R7bW02cJMiw21MFgMBk+XL+thcbv335PVD1+DdMSvN6e5DeAR4OmPSRsKIr86Yk4qg==",
      "path": "microsoft.extensions.fileproviders.abstractions/2.2.0",
      "hashPath": "microsoft.extensions.fileproviders.abstractions.2.2.0.nupkg.sha512"
    },
    "Microsoft.Extensions.FileProviders.Physical/2.2.0": {
      "type": "package",
      "serviceable": true,
      "sha512": "sha512-Qt6sUa56/XbLxYshrCzwJYhHO9TkVa9Adch1qVqr7PGuLCxRs3K7nGMv3I6msUvAJqiJE33Oexz6KrT4hcUHgA==",
      "path": "microsoft.extensions.fileproviders.physical/2.2.0",
      "hashPath": "microsoft.extensions.fileproviders.physical.2.2.0.nupkg.sha512"
    },
    "Microsoft.Extensions.FileSystemGlobbing/2.2.0": {
      "type": "package",
      "serviceable": true,
      "sha512": "sha512-WGASE48sldx5PHrmxpmW0qFJ0M0mZXhF9IgdBDTSNmnys7Qfw7xTuHs/nmbA1Wo8Y8XFI7K2cJKf9Ql/nBK4Rw==",
      "path": "microsoft.extensions.filesystemglobbing/2.2.0",
      "hashPath": "microsoft.extensions.filesystemglobbing.2.2.0.nupkg.sha512"
    },
    "Microsoft.Extensions.Primitives/2.2.0": {
      "type": "package",
      "serviceable": true,
      "sha512": "sha512-vpH+o7f8obVx65PiEtBXxTwL5RosK60fNIMy/y8WGE4/r4IvAqQGukOzMhxsp//Accvd7kmukyQTVkqVYdaDyA==",
      "path": "microsoft.extensions.primitives/2.2.0",
      "hashPath": "microsoft.extensions.primitives.2.2.0.nupkg.sha512"
    },
    "NetBox/2.1.4": {
      "type": "package",
      "serviceable": true,
      "sha512": "sha512-XE+POPSY5XmRedGZphg77CWnXaTdyCxxsv5wy3w2r8d5j+JHKbCtuJ5F/pflSmuFIaO8a38MIw0AKuBloogrzQ==",
      "path": "netbox/2.1.4",
      "hashPath": "netbox.2.1.4.nupkg.sha512"
    },
    "Newtonsoft.Json/12.0.1": {
      "type": "package",
      "serviceable": true,
      "sha512": "sha512-jmVyoEyk0In8r+AObYQyFKVFm7uSRzE0XSHSbEtBJcZDMV6DqJoyB4FLcHwprPVhAh826so0db3DIKXVnpGoPA==",
      "path": "newtonsoft.json/12.0.1",
      "hashPath": "newtonsoft.json.12.0.1.nupkg.sha512"
    },
    "System.Memory/4.5.1": {
      "type": "package",
      "serviceable": true,
      "sha512": "sha512-vcG3/MbfpxznMkkkaAblJi7RHOmuP7kawQMhDgLSuA1tRpRQYsFSCTxRSINDUgn2QNn2jWeLxv8er5BXbyACkw==",
      "path": "system.memory/4.5.1",
      "hashPath": "system.memory.4.5.1.nupkg.sha512"
    },
    "System.Runtime.CompilerServices.Unsafe/4.5.1": {
      "type": "package",
      "serviceable": true,
      "sha512": "sha512-qUJMNWhbm9oZ3XaMFiEMiYmRPszbnXIkRIi7+4b2Md2xZ6JUOepf0/kY3S85qistRohl9OdMe4PsO+RdG2kTIQ==",
      "path": "system.runtime.compilerservices.unsafe/4.5.1",
      "hashPath": "system.runtime.compilerservices.unsafe.4.5.1.nupkg.sha512"
    },
    "WindowsAzure.Storage/9.3.3": {
      "type": "package",
      "serviceable": true,
      "sha512": "sha512-nBRir2+4rZgm5xWwAe6DMGepLprFmVsAby6gV06Y1pkWkMoZxMAO6x3Bid2SH0SBpSSE43nHwx8Y0G4FDN6XJg==",
      "path": "windowsazure.storage/9.3.3",
      "hashPath": "windowsazure.storage.9.3.3.nupkg.sha512"
    },
    "Storage.Net/1.0.0": {
      "type": "project",
      "serviceable": false,
      "sha512": ""
    }
  }
}