{
  "runtimeTarget": {
    "name": ".NETCoreApp,Version=v2.2",
    "signature": "176cd535ec5ae15b1ca5ba205a9b989d894460ae"
  },
  "compilationOptions": {},
  "targets": {
    ".NETCoreApp,Version=v2.2": {
      "MicroService.Utility.Logging/1.0.0": {
        "dependencies": {
          "Microsoft.Extensions.Configuration": "2.0.1",
          "Microsoft.Extensions.Configuration.Json": "2.0.1",
          "Serilog.Sinks.AzureAnalytics": "4.5.0",
          "LogAnalyticsWrapper": "1.0.0.0"
        },
        "runtime": {
          "MicroService.Utility.Logging.dll": {}
        }
      },
      "Microsoft.Extensions.Configuration/2.0.1": {
        "dependencies": {
          "Microsoft.Extensions.Configuration.Abstractions": "2.0.1"
        },
        "runtime": {
          "lib/netstandard2.0/Microsoft.Extensions.Configuration.dll": {
            "assemblyVersion": "2.0.1.0",
            "fileVersion": "2.0.1.18051"
          }
        }
      },
      "Microsoft.Extensions.Configuration.Abstractions/2.0.1": {
        "dependencies": {
          "Microsoft.Extensions.Primitives": "2.0.0"
        },
        "runtime": {
          "lib/netstandard2.0/Microsoft.Extensions.Configuration.Abstractions.dll": {
            "assemblyVersion": "2.0.1.0",
            "fileVersion": "2.0.1.18051"
          }
        }
      },
      "Microsoft.Extensions.Configuration.FileExtensions/2.0.1": {
        "dependencies": {
          "Microsoft.Extensions.Configuration": "2.0.1",
          "Microsoft.Extensions.FileProviders.Physical": "2.0.1"
        },
        "runtime": {
          "lib/netstandard2.0/Microsoft.Extensions.Configuration.FileExtensions.dll": {
            "assemblyVersion": "2.0.1.0",
            "fileVersion": "2.0.1.18051"
          }
        }
      },
      "Microsoft.Extensions.Configuration.Json/2.0.1": {
        "dependencies": {
          "Microsoft.Extensions.Configuration": "2.0.1",
          "Microsoft.Extensions.Configuration.FileExtensions": "2.0.1",
          "Newtonsoft.Json": "12.0.1"
        },
        "runtime": {
          "lib/netstandard2.0/Microsoft.Extensions.Configuration.Json.dll": {
            "assemblyVersion": "2.0.1.0",
            "fileVersion": "2.0.1.18051"
          }
        }
      },
      "Microsoft.Extensions.FileProviders.Abstractions/2.0.1": {
        "dependencies": {
          "Microsoft.Extensions.Primitives": "2.0.0"
        },
        "runtime": {
          "lib/netstandard2.0/Microsoft.Extensions.FileProviders.Abstractions.dll": {
            "assemblyVersion": "2.0.1.0",
            "fileVersion": "2.0.1.18051"
          }
        }
      },
      "Microsoft.Extensions.FileProviders.Physical/2.0.1": {
        "dependencies": {
          "Microsoft.Extensions.FileProviders.Abstractions": "2.0.1",
          "Microsoft.Extensions.FileSystemGlobbing": "2.0.1"
        },
        "runtime": {
          "lib/netstandard2.0/Microsoft.Extensions.FileProviders.Physical.dll": {
            "assemblyVersion": "2.0.1.0",
            "fileVersion": "2.0.1.18051"
          }
        }
      },
      "Microsoft.Extensions.FileSystemGlobbing/2.0.1": {
        "runtime": {
          "lib/netstandard2.0/Microsoft.Extensions.FileSystemGlobbing.dll": {
            "assemblyVersion": "2.0.1.0",
            "fileVersion": "2.0.1.18051"
          }
        }
      },
      "Microsoft.Extensions.Primitives/2.0.0": {
        "dependencies": {
          "System.Runtime.CompilerServices.Unsafe": "4.4.0"
        },
        "runtime": {
          "lib/netstandard2.0/Microsoft.Extensions.Primitives.dll": {
            "assemblyVersion": "2.0.0.0",
            "fileVersion": "2.0.0.17205"
          }
        }
      },
      "Newtonsoft.Json/12.0.1": {
        "runtime": {
          "lib/netstandard2.0/Newtonsoft.Json.dll": {
            "assemblyVersion": "12.0.0.0",
            "fileVersion": "12.0.1.22727"
          }
        }
      },
      "runtime.debian.8-x64.runtime.native.System.Security.Cryptography.OpenSsl/4.3.2": {
        "runtimeTargets": {
          "runtime/debian.8-x64/native/_._": {
            "rid": "debian.8-x64",
            "assetType": "native"
          }
        }
      },
      "runtime.fedora.23-x64.runtime.native.System.Security.Cryptography.OpenSsl/4.3.2": {
        "runtimeTargets": {
          "runtime/fedora.23-x64/native/_._": {
            "rid": "fedora.23-x64",
            "assetType": "native"
          }
        }
      },
      "runtime.fedora.24-x64.runtime.native.System.Security.Cryptography.OpenSsl/4.3.2": {
        "runtimeTargets": {
          "runtime/fedora.24-x64/native/_._": {
            "rid": "fedora.24-x64",
            "assetType": "native"
          }
        }
      },
      "runtime.native.System/4.3.0": {},
      "runtime.native.System.Net.Http/4.3.0": {},
      "runtime.native.System.Security.Cryptography.Apple/4.3.0": {
        "dependencies": {
          "runtime.osx.10.10-x64.runtime.native.System.Security.Cryptography.Apple": "4.3.0"
        }
      },
      "runtime.native.System.Security.Cryptography.OpenSsl/4.3.2": {
        "dependencies": {
          "runtime.debian.8-x64.runtime.native.System.Security.Cryptography.OpenSsl": "4.3.2",
          "runtime.fedora.23-x64.runtime.native.System.Security.Cryptography.OpenSsl": "4.3.2",
          "runtime.fedora.24-x64.runtime.native.System.Security.Cryptography.OpenSsl": "4.3.2",
          "runtime.opensuse.13.2-x64.runtime.native.System.Security.Cryptography.OpenSsl": "4.3.2",
          "runtime.opensuse.42.1-x64.runtime.native.System.Security.Cryptography.OpenSsl": "4.3.2",
          "runtime.osx.10.10-x64.runtime.native.System.Security.Cryptography.OpenSsl": "4.3.2",
          "runtime.rhel.7-x64.runtime.native.System.Security.Cryptography.OpenSsl": "4.3.2",
          "runtime.ubuntu.14.04-x64.runtime.native.System.Security.Cryptography.OpenSsl": "4.3.2",
          "runtime.ubuntu.16.04-x64.runtime.native.System.Security.Cryptography.OpenSsl": "4.3.2",
          "runtime.ubuntu.16.10-x64.runtime.native.System.Security.Cryptography.OpenSsl": "4.3.2"
        }
      },
      "runtime.opensuse.13.2-x64.runtime.native.System.Security.Cryptography.OpenSsl/4.3.2": {
        "runtimeTargets": {
          "runtime/opensuse.13.2-x64/native/_._": {
            "rid": "opensuse.13.2-x64",
            "assetType": "native"
          }
        }
      },
      "runtime.opensuse.42.1-x64.runtime.native.System.Security.Cryptography.OpenSsl/4.3.2": {
        "runtimeTargets": {
          "runtime/opensuse.42.1-x64/native/_._": {
            "rid": "opensuse.42.1-x64",
            "assetType": "native"
          }
        }
      },
      "runtime.osx.10.10-x64.runtime.native.System.Security.Cryptography.Apple/4.3.0": {
        "runtimeTargets": {
          "runtime/osx.10.10-x64/native/_._": {
            "rid": "osx.10.10-x64",
            "assetType": "native"
          }
        }
      },
      "runtime.osx.10.10-x64.runtime.native.System.Security.Cryptography.OpenSsl/4.3.2": {
        "runtimeTargets": {
          "runtime/osx.10.10-x64/native/_._": {
            "rid": "osx.10.10-x64",
            "assetType": "native"
          }
        }
      },
      "runtime.rhel.7-x64.runtime.native.System.Security.Cryptography.OpenSsl/4.3.2": {
        "runtimeTargets": {
          "runtime/rhel.7-x64/native/_._": {
            "rid": "rhel.7-x64",
            "assetType": "native"
          }
        }
      },
      "runtime.ubuntu.14.04-x64.runtime.native.System.Security.Cryptography.OpenSsl/4.3.2": {
        "runtimeTargets": {
          "runtime/ubuntu.14.04-x64/native/_._": {
            "rid": "ubuntu.14.04-x64",
            "assetType": "native"
          }
        }
      },
      "runtime.ubuntu.16.04-x64.runtime.native.System.Security.Cryptography.OpenSsl/4.3.2": {
        "runtimeTargets": {
          "runtime/ubuntu.16.04-x64/native/_._": {
            "rid": "ubuntu.16.04-x64",
            "assetType": "native"
          }
        }
      },
      "runtime.ubuntu.16.10-x64.runtime.native.System.Security.Cryptography.OpenSsl/4.3.2": {
        "runtimeTargets": {
          "runtime/ubuntu.16.10-x64/native/_._": {
            "rid": "ubuntu.16.10-x64",
            "assetType": "native"
          }
        }
      },
      "Serilog/2.8.0": {
        "dependencies": {
          "System.Collections.NonGeneric": "4.3.0"
        },
        "runtime": {
          "lib/netstandard2.0/Serilog.dll": {
            "assemblyVersion": "2.0.0.0",
            "fileVersion": "2.8.0.0"
          }
        }
      },
      "Serilog.Sinks.AzureAnalytics/4.5.0": {
        "dependencies": {
          "Newtonsoft.Json": "12.0.1",
          "Serilog": "2.8.0",
          "System.Net.Http": "4.3.4"
        },
        "runtime": {
          "lib/netcoreapp2.2/Serilog.Sinks.AzureAnalytics.dll": {
            "assemblyVersion": "4.5.0.0",
            "fileVersion": "4.5.0.0"
          }
        }
      },
      "System.Collections/4.3.0": {
        "dependencies": {
          "System.Runtime": "4.3.0"
        }
      },
      "System.Collections.Concurrent/4.3.0": {
        "dependencies": {
          "System.Collections": "4.3.0",
          "System.Diagnostics.Debug": "4.3.0",
          "System.Diagnostics.Tracing": "4.3.0",
          "System.Globalization": "4.3.0",
          "System.Reflection": "4.3.0",
          "System.Resources.ResourceManager": "4.3.0",
          "System.Runtime": "4.3.0",
          "System.Runtime.Extensions": "4.3.0",
          "System.Threading": "4.3.0",
          "System.Threading.Tasks": "4.3.0"
        }
      },
      "System.Collections.NonGeneric/4.3.0": {
        "dependencies": {
          "System.Diagnostics.Debug": "4.3.0",
          "System.Globalization": "4.3.0",
          "System.Resources.ResourceManager": "4.3.0",
          "System.Runtime": "4.3.0",
          "System.Runtime.Extensions": "4.3.0",
          "System.Threading": "4.3.0"
        }
      },
      "System.Diagnostics.Debug/4.3.0": {
        "dependencies": {
          "System.Runtime": "4.3.0"
        }
      },
      "System.Diagnostics.DiagnosticSource/4.3.0": {
        "dependencies": {
          "System.Collections": "4.3.0",
          "System.Diagnostics.Tracing": "4.3.0",
          "System.Reflection": "4.3.0",
          "System.Runtime": "4.3.0",
          "System.Threading": "4.3.0"
        }
      },
      "System.Diagnostics.Tracing/4.3.0": {
        "dependencies": {
          "System.Runtime": "4.3.0"
        }
      },
      "System.Globalization/4.3.0": {
        "dependencies": {
          "System.Runtime": "4.3.0"
        }
      },
      "System.Globalization.Calendars/4.3.0": {
        "dependencies": {
          "System.Globalization": "4.3.0",
          "System.Runtime": "4.3.0"
        }
      },
      "System.Globalization.Extensions/4.3.0": {
        "dependencies": {
          "System.Globalization": "4.3.0",
          "System.Resources.ResourceManager": "4.3.0",
          "System.Runtime": "4.3.0",
          "System.Runtime.Extensions": "4.3.0",
          "System.Runtime.InteropServices": "4.3.0"
        },
        "runtimeTargets": {
          "runtime/unix/lib/_._": {
            "rid": "unix",
            "assetType": "runtime"
          },
          "runtime/win/lib/_._": {
            "rid": "win",
            "assetType": "runtime"
          }
        }
      },
      "System.IO/4.3.0": {
        "dependencies": {
          "System.Runtime": "4.3.0",
          "System.Text.Encoding": "4.3.0",
          "System.Threading.Tasks": "4.3.0"
        }
      },
      "System.IO.FileSystem/4.3.0": {
        "dependencies": {
          "System.IO": "4.3.0",
          "System.IO.FileSystem.Primitives": "4.3.0",
          "System.Runtime": "4.3.0",
          "System.Runtime.Handles": "4.3.0",
          "System.Text.Encoding": "4.3.0",
          "System.Threading.Tasks": "4.3.0"
        }
      },
      "System.IO.FileSystem.Primitives/4.3.0": {
        "dependencies": {
          "System.Runtime": "4.3.0"
        }
      },
      "System.Linq/4.3.0": {
        "dependencies": {
          "System.Collections": "4.3.0",
          "System.Diagnostics.Debug": "4.3.0",
          "System.Resources.ResourceManager": "4.3.0",
          "System.Runtime": "4.3.0",
          "System.Runtime.Extensions": "4.3.0"
        }
      },
      "System.Net.Http/4.3.4": {
        "dependencies": {
          "System.Collections": "4.3.0",
          "System.Diagnostics.Debug": "4.3.0",
          "System.Diagnostics.DiagnosticSource": "4.3.0",
          "System.Diagnostics.Tracing": "4.3.0",
          "System.Globalization": "4.3.0",
          "System.Globalization.Extensions": "4.3.0",
          "System.IO": "4.3.0",
          "System.IO.FileSystem": "4.3.0",
          "System.Net.Primitives": "4.3.0",
          "System.Resources.ResourceManager": "4.3.0",
          "System.Runtime": "4.3.0",
          "System.Runtime.Extensions": "4.3.0",
          "System.Runtime.Handles": "4.3.0",
          "System.Runtime.InteropServices": "4.3.0",
          "System.Security.Cryptography.Algorithms": "4.3.0",
          "System.Security.Cryptography.Encoding": "4.3.0",
          "System.Security.Cryptography.OpenSsl": "4.3.0",
          "System.Security.Cryptography.Primitives": "4.3.0",
          "System.Security.Cryptography.X509Certificates": "4.3.0",
          "System.Text.Encoding": "4.3.0",
          "System.Threading": "4.3.0",
          "System.Threading.Tasks": "4.3.0",
          "runtime.native.System": "4.3.0",
          "runtime.native.System.Net.Http": "4.3.0",
          "runtime.native.System.Security.Cryptography.OpenSsl": "4.3.2"
        },
        "runtimeTargets": {
          "runtime/unix/lib/_._": {
            "rid": "unix",
            "assetType": "runtime"
          },
          "runtime/win/lib/_._": {
            "rid": "win",
            "assetType": "runtime"
          }
        }
      },
      "System.Net.Primitives/4.3.0": {
        "dependencies": {
          "System.Runtime": "4.3.0",
          "System.Runtime.Handles": "4.3.0"
        }
      },
      "System.Reflection/4.3.0": {
        "dependencies": {
          "System.IO": "4.3.0",
          "System.Reflection.Primitives": "4.3.0",
          "System.Runtime": "4.3.0"
        }
      },
      "System.Reflection.Primitives/4.3.0": {
        "dependencies": {
          "System.Runtime": "4.3.0"
        }
      },
      "System.Resources.ResourceManager/4.3.0": {
        "dependencies": {
          "System.Globalization": "4.3.0",
          "System.Reflection": "4.3.0",
          "System.Runtime": "4.3.0"
        }
      },
      "System.Runtime/4.3.0": {},
      "System.Runtime.CompilerServices.Unsafe/4.4.0": {
        "runtime": {
          "lib/netstandard2.0/System.Runtime.CompilerServices.Unsafe.dll": {
            "assemblyVersion": "4.0.3.0",
            "fileVersion": "0.0.0.0"
          }
        }
      },
      "System.Runtime.Extensions/4.3.0": {
        "dependencies": {
          "System.Runtime": "4.3.0"
        }
      },
      "System.Runtime.Handles/4.3.0": {
        "dependencies": {
          "System.Runtime": "4.3.0"
        }
      },
      "System.Runtime.InteropServices/4.3.0": {
        "dependencies": {
          "System.Reflection": "4.3.0",
          "System.Reflection.Primitives": "4.3.0",
          "System.Runtime": "4.3.0",
          "System.Runtime.Handles": "4.3.0"
        }
      },
      "System.Runtime.Numerics/4.3.0": {
        "dependencies": {
          "System.Globalization": "4.3.0",
          "System.Resources.ResourceManager": "4.3.0",
          "System.Runtime": "4.3.0",
          "System.Runtime.Extensions": "4.3.0"
        }
      },
      "System.Security.Cryptography.Algorithms/4.3.0": {
        "dependencies": {
          "System.Collections": "4.3.0",
          "System.IO": "4.3.0",
          "System.Resources.ResourceManager": "4.3.0",
          "System.Runtime": "4.3.0",
          "System.Runtime.Extensions": "4.3.0",
          "System.Runtime.Handles": "4.3.0",
          "System.Runtime.InteropServices": "4.3.0",
          "System.Runtime.Numerics": "4.3.0",
          "System.Security.Cryptography.Encoding": "4.3.0",
          "System.Security.Cryptography.Primitives": "4.3.0",
          "System.Text.Encoding": "4.3.0",
          "runtime.native.System.Security.Cryptography.Apple": "4.3.0",
          "runtime.native.System.Security.Cryptography.OpenSsl": "4.3.2"
        },
        "runtimeTargets": {
          "runtime/osx/lib/_._": {
            "rid": "osx",
            "assetType": "runtime"
          },
          "runtime/unix/lib/_._": {
            "rid": "unix",
            "assetType": "runtime"
          },
          "runtime/win/lib/_._": {
            "rid": "win",
            "assetType": "runtime"
          }
        }
      },
      "System.Security.Cryptography.Cng/4.3.0": {
        "dependencies": {
          "System.IO": "4.3.0",
          "System.Resources.ResourceManager": "4.3.0",
          "System.Runtime": "4.3.0",
          "System.Runtime.Extensions": "4.3.0",
          "System.Runtime.Handles": "4.3.0",
          "System.Runtime.InteropServices": "4.3.0",
          "System.Security.Cryptography.Algorithms": "4.3.0",
          "System.Security.Cryptography.Encoding": "4.3.0",
          "System.Security.Cryptography.Primitives": "4.3.0",
          "System.Text.Encoding": "4.3.0"
        },
        "runtimeTargets": {
          "runtime/unix/lib/_._": {
            "rid": "unix",
            "assetType": "runtime"
          },
          "runtime/win/lib/_._": {
            "rid": "win",
            "assetType": "runtime"
          }
        }
      },
      "System.Security.Cryptography.Csp/4.3.0": {
        "dependencies": {
          "System.IO": "4.3.0",
          "System.Reflection": "4.3.0",
          "System.Resources.ResourceManager": "4.3.0",
          "System.Runtime": "4.3.0",
          "System.Runtime.Extensions": "4.3.0",
          "System.Runtime.Handles": "4.3.0",
          "System.Runtime.InteropServices": "4.3.0",
          "System.Security.Cryptography.Algorithms": "4.3.0",
          "System.Security.Cryptography.Encoding": "4.3.0",
          "System.Security.Cryptography.Primitives": "4.3.0",
          "System.Text.Encoding": "4.3.0",
          "System.Threading": "4.3.0"
        },
        "runtimeTargets": {
          "runtime/unix/lib/_._": {
            "rid": "unix",
            "assetType": "runtime"
          },
          "runtime/win/lib/_._": {
            "rid": "win",
            "assetType": "runtime"
          }
        }
      },
      "System.Security.Cryptography.Encoding/4.3.0": {
        "dependencies": {
          "System.Collections": "4.3.0",
          "System.Collections.Concurrent": "4.3.0",
          "System.Linq": "4.3.0",
          "System.Resources.ResourceManager": "4.3.0",
          "System.Runtime": "4.3.0",
          "System.Runtime.Extensions": "4.3.0",
          "System.Runtime.Handles": "4.3.0",
          "System.Runtime.InteropServices": "4.3.0",
          "System.Security.Cryptography.Primitives": "4.3.0",
          "System.Text.Encoding": "4.3.0",
          "runtime.native.System.Security.Cryptography.OpenSsl": "4.3.2"
        },
        "runtimeTargets": {
          "runtime/unix/lib/_._": {
            "rid": "unix",
            "assetType": "runtime"
          },
          "runtime/win/lib/_._": {
            "rid": "win",
            "assetType": "runtime"
          }
        }
      },
      "System.Security.Cryptography.OpenSsl/4.3.0": {
        "dependencies": {
          "System.Collections": "4.3.0",
          "System.IO": "4.3.0",
          "System.Resources.ResourceManager": "4.3.0",
          "System.Runtime": "4.3.0",
          "System.Runtime.Extensions": "4.3.0",
          "System.Runtime.Handles": "4.3.0",
          "System.Runtime.InteropServices": "4.3.0",
          "System.Runtime.Numerics": "4.3.0",
          "System.Security.Cryptography.Algorithms": "4.3.0",
          "System.Security.Cryptography.Encoding": "4.3.0",
          "System.Security.Cryptography.Primitives": "4.3.0",
          "System.Text.Encoding": "4.3.0",
          "runtime.native.System.Security.Cryptography.OpenSsl": "4.3.2"
        },
        "runtimeTargets": {
          "runtime/unix/lib/_._": {
            "rid": "unix",
            "assetType": "runtime"
          }
        }
      },
      "System.Security.Cryptography.Primitives/4.3.0": {
        "dependencies": {
          "System.Diagnostics.Debug": "4.3.0",
          "System.Globalization": "4.3.0",
          "System.IO": "4.3.0",
          "System.Resources.ResourceManager": "4.3.0",
          "System.Runtime": "4.3.0",
          "System.Threading": "4.3.0",
          "System.Threading.Tasks": "4.3.0"
        }
      },
      "System.Security.Cryptography.X509Certificates/4.3.0": {
        "dependencies": {
          "System.Collections": "4.3.0",
          "System.Diagnostics.Debug": "4.3.0",
          "System.Globalization": "4.3.0",
          "System.Globalization.Calendars": "4.3.0",
          "System.IO": "4.3.0",
          "System.IO.FileSystem": "4.3.0",
          "System.IO.FileSystem.Primitives": "4.3.0",
          "System.Resources.ResourceManager": "4.3.0",
          "System.Runtime": "4.3.0",
          "System.Runtime.Extensions": "4.3.0",
          "System.Runtime.Handles": "4.3.0",
          "System.Runtime.InteropServices": "4.3.0",
          "System.Runtime.Numerics": "4.3.0",
          "System.Security.Cryptography.Algorithms": "4.3.0",
          "System.Security.Cryptography.Cng": "4.3.0",
          "System.Security.Cryptography.Csp": "4.3.0",
          "System.Security.Cryptography.Encoding": "4.3.0",
          "System.Security.Cryptography.OpenSsl": "4.3.0",
          "System.Security.Cryptography.Primitives": "4.3.0",
          "System.Text.Encoding": "4.3.0",
          "System.Threading": "4.3.0",
          "runtime.native.System": "4.3.0",
          "runtime.native.System.Net.Http": "4.3.0",
          "runtime.native.System.Security.Cryptography.OpenSsl": "4.3.2"
        },
        "runtimeTargets": {
          "runtime/unix/lib/_._": {
            "rid": "unix",
            "assetType": "runtime"
          },
          "runtime/win/lib/_._": {
            "rid": "win",
            "assetType": "runtime"
          }
        }
      },
      "System.Text.Encoding/4.3.0": {
        "dependencies": {
          "System.Runtime": "4.3.0"
        }
      },
      "System.Threading/4.3.0": {
        "dependencies": {
          "System.Runtime": "4.3.0",
          "System.Threading.Tasks": "4.3.0"
        }
      },
      "System.Threading.Tasks/4.3.0": {
        "dependencies": {
          "System.Runtime": "4.3.0"
        }
      },
      "LogAnalyticsWrapper/1.0.0.0": {
        "runtime": {
          "LogAnalyticsWrapper.dll": {
            "assemblyVersion": "1.0.0.0",
            "fileVersion": "1.0.0.0"
          }
        }
      }
    }
  },
  "libraries": {
    "MicroService.Utility.Logging/1.0.0": {
      "type": "project",
      "serviceable": false,
      "sha512": ""
    },
    "Microsoft.Extensions.Configuration/2.0.1": {
      "type": "package",
      "serviceable": true,
      "sha512": "sha512-XMMay3+c1xUE4LvKUddjfJsAE50OOzAvA5Py07ZtQMGGeiGk85Rz2UZ2EExmMkcTj2clyRuXVHxJ+I9O3A9jrw==",
      "path": "microsoft.extensions.configuration/2.0.1",
      "hashPath": "microsoft.extensions.configuration.2.0.1.nupkg.sha512"
    },
    "Microsoft.Extensions.Configuration.Abstractions/2.0.1": {
      "type": "package",
      "serviceable": true,
      "sha512": "sha512-Y8ibW12AHHOpp3kU1ByRaacmJDPKZCc+F4RpfkIZSkii9JnmDSC6CnauRprUqoQfc9WbtP8acebMHqTCktETww==",
      "path": "microsoft.extensions.configuration.abstractions/2.0.1",
      "hashPath": "microsoft.extensions.configuration.abstractions.2.0.1.nupkg.sha512"
    },
    "Microsoft.Extensions.Configuration.FileExtensions/2.0.1": {
      "type": "package",
      "serviceable": true,
      "sha512": "sha512-5DZZ2Dv12S9UgPMxFx09WGBGoWZGUb/0zFQUjzcPKObMqtbbv1ZsM7fwREfVPTWlbbw/UHZZsAJoOC12JsBP9A==",
      "path": "microsoft.extensions.configuration.fileextensions/2.0.1",
      "hashPath": "microsoft.extensions.configuration.fileextensions.2.0.1.nupkg.sha512"
    },
    "Microsoft.Extensions.Configuration.Json/2.0.1": {
      "type": "package",
      "serviceable": true,
      "sha512": "sha512-tG8Bf4X9H3mAd0NnbT6a5Jyts4ezLr2ml0TJt72CtZxpltO9Jf0FO7W8VyjSUFjM05QO1+7o9xdFbvYBhJB3BA==",
      "path": "microsoft.extensions.configuration.json/2.0.1",
      "hashPath": "microsoft.extensions.configuration.json.2.0.1.nupkg.sha512"
    },
    "Microsoft.Extensions.FileProviders.Abstractions/2.0.1": {
      "type": "package",
      "serviceable": true,
      "sha512": "sha512-6nWyJ6KAc/TQzN2SN0/GbCyPUgqGKldepQhU2rCer8I4YYu1dhNGBJXUvBqUGLncuv+pYTLbqcoIXpS8857ZYw==",
      "path": "microsoft.extensions.fileproviders.abstractions/2.0.1",
      "hashPath": "microsoft.extensions.fileproviders.abstractions.2.0.1.nupkg.sha512"
    },
    "Microsoft.Extensions.FileProviders.Physical/2.0.1": {
      "type": "package",
      "serviceable": true,
      "sha512": "sha512-B5ClW+cSyTcF+Uw3u0o80a8+BIXLd201QAUm2h8RC+ayFjuVC2oxGFGKuxK5JRJgTzQdGrYXo/hZo3z5O8Gnpw==",
      "path": "microsoft.extensions.fileproviders.physical/2.0.1",
      "hashPath": "microsoft.extensions.fileproviders.physical.2.0.1.nupkg.sha512"
    },
    "Microsoft.Extensions.FileSystemGlobbing/2.0.1": {
      "type": "package",
      "serviceable": true,
      "sha512": "sha512-hliiQonrc79MZQSy70mpvfSN/yKFk9zPuYYF711iq4iDqQObwjBKje1w4gK3ISw6iyEF58kAeGuM2XnUpLxswA==",
      "path": "microsoft.extensions.filesystemglobbing/2.0.1",
      "hashPath": "microsoft.extensions.filesystemglobbing.2.0.1.nupkg.sha512"
    },
    "Microsoft.Extensions.Primitives/2.0.0": {
      "type": "package",
      "serviceable": true,
      "sha512": "sha512-RyhLFJoMszfbu1rz/gzoqvOrdgsnXxk0B/M4fKjsJdb6/I3t2MdVq4s1dWs8hOXKjcq26ovsLL1UPLowTsaTcQ==",
      "path": "microsoft.extensions.primitives/2.0.0",
      "hashPath": "microsoft.extensions.primitives.2.0.0.nupkg.sha512"
    },
    "Newtonsoft.Json/12.0.1": {
      "type": "package",
      "serviceable": true,
      "sha512": "sha512-jmVyoEyk0In8r+AObYQyFKVFm7uSRzE0XSHSbEtBJcZDMV6DqJoyB4FLcHwprPVhAh826so0db3DIKXVnpGoPA==",
      "path": "newtonsoft.json/12.0.1",
      "hashPath": "newtonsoft.json.12.0.1.nupkg.sha512"
    },
    "runtime.debian.8-x64.runtime.native.System.Security.Cryptography.OpenSsl/4.3.2": {
      "type": "package",
      "serviceable": true,
      "sha512": "sha512-jwcVUu4ELwy6ObG6ChIFz3PeRH1mKZW65o+FellG99FUwCmnnjdGkIFnVoeHPIvyue/lf1y9Zgw2axylGCP38g==",
      "path": "runtime.debian.8-x64.runtime.native.system.security.cryptography.openssl/4.3.2",
      "hashPath": "runtime.debian.8-x64.runtime.native.system.security.cryptography.openssl.4.3.2.nupkg.sha512"
    },
    "runtime.fedora.23-x64.runtime.native.System.Security.Cryptography.OpenSsl/4.3.2": {
      "type": "package",
      "serviceable": true,
      "sha512": "sha512-oTXKD09aSTGbWlK39DOPil/EOH7fJvKebL9jo8OjeytcUcnK9WLsQeRw+6KBBgNiRlvFaRW+eC1sdXeKphleRg==",
      "path": "runtime.fedora.23-x64.runtime.native.system.security.cryptography.openssl/4.3.2",
      "hashPath": "runtime.fedora.23-x64.runtime.native.system.security.cryptography.openssl.4.3.2.nupkg.sha512"
    },
    "runtime.fedora.24-x64.runtime.native.System.Security.Cryptography.OpenSsl/4.3.2": {
      "type": "package",
      "serviceable": true,
      "sha512": "sha512-LyTiy6iKlrsjhI4UBIeORHimVkI4e3t2qkAHWH/nxNggjL3lPT7WX40Ncc1oi/wWvmbcX3vPhMeyzPGzxQWwtA==",
      "path": "runtime.fedora.24-x64.runtime.native.system.security.cryptography.openssl/4.3.2",
      "hashPath": "runtime.fedora.24-x64.runtime.native.system.security.cryptography.openssl.4.3.2.nupkg.sha512"
    },
    "runtime.native.System/4.3.0": {
      "type": "package",
      "serviceable": true,
      "sha512": "sha512-c/qWt2LieNZIj1jGnVNsE2Kl23Ya2aSTBuXMD6V7k9KWr6l16Tqdwq+hJScEpWER9753NWC8h96PaVNY5Ld7Jw==",
      "path": "runtime.native.system/4.3.0",
      "hashPath": "runtime.native.system.4.3.0.nupkg.sha512"
    },
    "runtime.native.System.Net.Http/4.3.0": {
      "type": "package",
      "serviceable": true,
      "sha512": "sha512-ZVuZJqnnegJhd2k/PtAbbIcZ3aZeITq3sj06oKfMBSfphW3HDmk/t4ObvbOk/JA/swGR0LNqMksAh/f7gpTROg==",
      "path": "runtime.native.system.net.http/4.3.0",
      "hashPath": "runtime.native.system.net.http.4.3.0.nupkg.sha512"
    },
    "runtime.native.System.Security.Cryptography.Apple/4.3.0": {
      "type": "package",
      "serviceable": true,
      "sha512": "sha512-DloMk88juo0OuOWr56QG7MNchmafTLYWvABy36izkrLI5VledI0rq28KGs1i9wbpeT9NPQrx/wTf8U2vazqQ3Q==",
      "path": "runtime.native.system.security.cryptography.apple/4.3.0",
      "hashPath": "runtime.native.system.security.cryptography.apple.4.3.0.nupkg.sha512"
    },
    "runtime.native.System.Security.Cryptography.OpenSsl/4.3.2": {
      "type": "package",
      "serviceable": true,
      "sha512": "sha512-o0rS2+Z+/K6X/L6levOGswZgqYq4IppWwNyiQTFuZzz3om4Zxu+2txF8wnH98gh0G6b4RHriVMkay6Pdt9KSOg==",
      "path": "runtime.native.system.security.cryptography.openssl/4.3.2",
      "hashPath": "runtime.native.system.security.cryptography.openssl.4.3.2.nupkg.sha512"
    },
    "runtime.opensuse.13.2-x64.runtime.native.System.Security.Cryptography.OpenSsl/4.3.2": {
      "type": "package",
      "serviceable": true,
      "sha512": "sha512-zghz4HAA35jmQL0mXpadSpI2U1zuJpnFNj86spdVew11YmBVeZXy7hY8/wX8K6ki1mug5MsoUh+EHn1UarO2Pg==",
      "path": "runtime.opensuse.13.2-x64.runtime.native.system.security.cryptography.openssl/4.3.2",
      "hashPath": "runtime.opensuse.13.2-x64.runtime.native.system.security.cryptography.openssl.4.3.2.nupkg.sha512"
    },
    "runtime.opensuse.42.1-x64.runtime.native.System.Security.Cryptography.OpenSsl/4.3.2": {
      "type": "package",
      "serviceable": true,
      "sha512": "sha512-v3VMGmbNcNwb041U/mdendRwQX67pi4veeJ4vo8GzDSW/1jtkNMLXdTT7+qazL0J6xfNh76IKVHA/fuDPDcfcA==",
      "path": "runtime.opensuse.42.1-x64.runtime.native.system.security.cryptography.openssl/4.3.2",
      "hashPath": "runtime.opensuse.42.1-x64.runtime.native.system.security.cryptography.openssl.4.3.2.nupkg.sha512"
    },
    "runtime.osx.10.10-x64.runtime.native.System.Security.Cryptography.Apple/4.3.0": {
      "type": "package",
      "serviceable": true,
      "sha512": "sha512-kVXCuMTrTlxq4XOOMAysuNwsXWpYeboGddNGpIgNSZmv1b6r/s/DPk0fYMB7Q5Qo4bY68o48jt4T4y5BVecbCQ==",
      "path": "runtime.osx.10.10-x64.runtime.native.system.security.cryptography.apple/4.3.0",
      "hashPath": "runtime.osx.10.10-x64.runtime.native.system.security.cryptography.apple.4.3.0.nupkg.sha512"
    },
    "runtime.osx.10.10-x64.runtime.native.System.Security.Cryptography.OpenSsl/4.3.2": {
      "type": "package",
      "serviceable": true,
      "sha512": "sha512-CjjyXodztYFVtdP5T4SbkzU9CAnaViKLjrq1yXbmRYylDrWjisykyJQGeObpUh+1euSHM398vy6niTrp4/Q5NQ==",
      "path": "runtime.osx.10.10-x64.runtime.native.system.security.cryptography.openssl/4.3.2",
      "hashPath": "runtime.osx.10.10-x64.runtime.native.system.security.cryptography.openssl.4.3.2.nupkg.sha512"
    },
    "runtime.rhel.7-x64.runtime.native.System.Security.Cryptography.OpenSsl/4.3.2": {
      "type": "package",
      "serviceable": true,
      "sha512": "sha512-KunbS3GbMfp+QMYPUscAOPyGaOApz04dEg/ejClWMdawggfXAYoik3t5VGAWxWDIlOJ91uvAHV4PZ3Vn5rLE8g==",
      "path": "runtime.rhel.7-x64.runtime.native.system.security.cryptography.openssl/4.3.2",
      "hashPath": "runtime.rhel.7-x64.runtime.native.system.security.cryptography.openssl.4.3.2.nupkg.sha512"
    },
    "runtime.ubuntu.14.04-x64.runtime.native.System.Security.Cryptography.OpenSsl/4.3.2": {
      "type": "package",
      "serviceable": true,
      "sha512": "sha512-zUt7p0TegAhlIatnytLbMIXUiDiNPZy4PZlGOJ8PTHhFOb86T/uNTzNHxceBOq3vlbNV/SVj4wyUiog8J7lShw==",
      "path": "runtime.ubuntu.14.04-x64.runtime.native.system.security.cryptography.openssl/4.3.2",
      "hashPath": "runtime.ubuntu.14.04-x64.runtime.native.system.security.cryptography.openssl.4.3.2.nupkg.sha512"
    },
    "runtime.ubuntu.16.04-x64.runtime.native.System.Security.Cryptography.OpenSsl/4.3.2": {
      "type": "package",
      "serviceable": true,
      "sha512": "sha512-1/woqfYA5HHtzgmJwBxIXU4qfplVH1MUE6+nUDmkAE1OLCfoiXbWVDJjWjIdhjFqPGza68ey/vpCFBtk9PENZg==",
      "path": "runtime.ubuntu.16.04-x64.runtime.native.system.security.cryptography.openssl/4.3.2",
      "hashPath": "runtime.ubuntu.16.04-x64.runtime.native.system.security.cryptography.openssl.4.3.2.nupkg.sha512"
    },
    "runtime.ubuntu.16.10-x64.runtime.native.System.Security.Cryptography.OpenSsl/4.3.2": {
      "type": "package",
      "serviceable": true,
      "sha512": "sha512-X+DmqHjv9Zz+JKjVevURQFdtjg/sSYjkiSwjPEezo+7SfewHKmwNVd1hV3fNnOP+VFxTU7SpUok3atC5QI7Uvg==",
      "path": "runtime.ubuntu.16.10-x64.runtime.native.system.security.cryptography.openssl/4.3.2",
      "hashPath": "runtime.ubuntu.16.10-x64.runtime.native.system.security.cryptography.openssl.4.3.2.nupkg.sha512"
    },
    "Serilog/2.8.0": {
      "type": "package",
      "serviceable": true,
      "sha512": "sha512-3jtlNpLFGz16ZEYZ0lohfUlVLspg+DW6kRVNC2rOtie6Xy+fIibtqFSZ6lQRdRKV6ER9WLxg+Q3em6f6ZccJ3A==",
      "path": "serilog/2.8.0",
      "hashPath": "serilog.2.8.0.nupkg.sha512"
    },
    "Serilog.Sinks.AzureAnalytics/4.5.0": {
      "type": "package",
      "serviceable": true,
      "sha512": "sha512-dDIxwdX2KQ/jOzIY9ehDSPEMQAVL0YsPhtpBH18RDXp+5CxIc77r2JDf+vqqA+JUUyrs+Xsn7hq5sGTdmLHsTA==",
      "path": "serilog.sinks.azureanalytics/4.5.0",
      "hashPath": "serilog.sinks.azureanalytics.4.5.0.nupkg.sha512"
    },
    "System.Collections/4.3.0": {
      "type": "package",
      "serviceable": true,
      "sha512": "sha512-3Dcj85/TBdVpL5Zr+gEEBUuFe2icOnLalmEh9hfck1PTYbbyWuZgh4fmm2ysCLTrqLQw6t3TgTyJ+VLp+Qb+Lw==",
      "path": "system.collections/4.3.0",
      "hashPath": "system.collections.4.3.0.nupkg.sha512"
    },
    "System.Collections.Concurrent/4.3.0": {
      "type": "package",
      "serviceable": true,
      "sha512": "sha512-ztl69Xp0Y/UXCL+3v3tEU+lIy+bvjKNUmopn1wep/a291pVPK7dxBd6T7WnlQqRog+d1a/hSsgRsmFnIBKTPLQ==",
      "path": "system.collections.concurrent/4.3.0",
      "hashPath": "system.collections.concurrent.4.3.0.nupkg.sha512"
    },
    "System.Collections.NonGeneric/4.3.0": {
      "type": "package",
      "serviceable": true,
      "sha512": "sha512-prtjIEMhGUnQq6RnPEYLpFt8AtLbp9yq2zxOSrY7KJJZrw25Fi97IzBqY7iqssbM61Ek5b8f3MG/sG1N2sN5KA==",
      "path": "system.collections.nongeneric/4.3.0",
      "hashPath": "system.collections.nongeneric.4.3.0.nupkg.sha512"
    },
    "System.Diagnostics.Debug/4.3.0": {
      "type": "package",
      "serviceable": true,
      "sha512": "sha512-ZUhUOdqmaG5Jk3Xdb8xi5kIyQYAA4PnTNlHx1mu9ZY3qv4ELIdKbnL/akbGaKi2RnNUWaZsAs31rvzFdewTj2g==",
      "path": "system.diagnostics.debug/4.3.0",
      "hashPath": "system.diagnostics.debug.4.3.0.nupkg.sha512"
    },
    "System.Diagnostics.DiagnosticSource/4.3.0": {
      "type": "package",
      "serviceable": true,
      "sha512": "sha512-tD6kosZnTAGdrEa0tZSuFyunMbt/5KYDnHdndJYGqZoNy00XVXyACd5d6KnE1YgYv3ne2CjtAfNXo/fwEhnKUA==",
      "path": "system.diagnostics.diagnosticsource/4.3.0",
      "hashPath": "system.diagnostics.diagnosticsource.4.3.0.nupkg.sha512"
    },
    "System.Diagnostics.Tracing/4.3.0": {
      "type": "package",
      "serviceable": true,
      "sha512": "sha512-rswfv0f/Cqkh78rA5S8eN8Neocz234+emGCtTF3lxPY96F+mmmUen6tbn0glN6PMvlKQb9bPAY5e9u7fgPTkKw==",
      "path": "system.diagnostics.tracing/4.3.0",
      "hashPath": "system.diagnostics.tracing.4.3.0.nupkg.sha512"
    },
    "System.Globalization/4.3.0": {
      "type": "package",
      "serviceable": true,
      "sha512": "sha512-kYdVd2f2PAdFGblzFswE4hkNANJBKRmsfa2X5LG2AcWE1c7/4t0pYae1L8vfZ5xvE2nK/R9JprtToA61OSHWIg==",
      "path": "system.globalization/4.3.0",
      "hashPath": "system.globalization.4.3.0.nupkg.sha512"
    },
    "System.Globalization.Calendars/4.3.0": {
      "type": "package",
      "serviceable": true,
      "sha512": "sha512-GUlBtdOWT4LTV3I+9/PJW+56AnnChTaOqqTLFtdmype/L500M2LIyXgmtd9X2P2VOkmJd5c67H5SaC2QcL1bFA==",
      "path": "system.globalization.calendars/4.3.0",
      "hashPath": "system.globalization.calendars.4.3.0.nupkg.sha512"
    },
    "System.Globalization.Extensions/4.3.0": {
      "type": "package",
      "serviceable": true,
      "sha512": "sha512-FhKmdR6MPG+pxow6wGtNAWdZh7noIOpdD5TwQ3CprzgIE1bBBoim0vbR1+AWsWjQmU7zXHgQo4TWSP6lCeiWcQ==",
      "path": "system.globalization.extensions/4.3.0",
      "hashPath": "system.globalization.extensions.4.3.0.nupkg.sha512"
    },
    "System.IO/4.3.0": {
      "type": "package",
      "serviceable": true,
      "sha512": "sha512-3qjaHvxQPDpSOYICjUoTsmoq5u6QJAFRUITgeT/4gqkF1bajbSmb1kwSxEA8AHlofqgcKJcM8udgieRNhaJ5Cg==",
      "path": "system.io/4.3.0",
      "hashPath": "system.io.4.3.0.nupkg.sha512"
    },
    "System.IO.FileSystem/4.3.0": {
      "type": "package",
      "serviceable": true,
      "sha512": "sha512-3wEMARTnuio+ulnvi+hkRNROYwa1kylvYahhcLk4HSoVdl+xxTFVeVlYOfLwrDPImGls0mDqbMhrza8qnWPTdA==",
      "path": "system.io.filesystem/4.3.0",
      "hashPath": "system.io.filesystem.4.3.0.nupkg.sha512"
    },
    "System.IO.FileSystem.Primitives/4.3.0": {
      "type": "package",
      "serviceable": true,
      "sha512": "sha512-6QOb2XFLch7bEc4lIcJH49nJN2HV+OC3fHDgsLVsBVBk3Y4hFAnOBGzJ2lUu7CyDDFo9IBWkSsnbkT6IBwwiMw==",
      "path": "system.io.filesystem.primitives/4.3.0",
      "hashPath": "system.io.filesystem.primitives.4.3.0.nupkg.sha512"
    },
    "System.Linq/4.3.0": {
      "type": "package",
      "serviceable": true,
      "sha512": "sha512-5DbqIUpsDp0dFftytzuMmc0oeMdQwjcP/EWxsksIz/w1TcFRkZ3yKKz0PqiYFMmEwPSWw+qNVqD7PJ889JzHbw==",
      "path": "system.linq/4.3.0",
      "hashPath": "system.linq.4.3.0.nupkg.sha512"
    },
    "System.Net.Http/4.3.4": {
      "type": "package",
      "serviceable": true,
      "sha512": "sha512-Fj7e73NNHwof97gFPTJuq8gv6G895yxkZt14DVnZdEh4gvKl8WrksCwNjIp/JeYX/yu/qxM/iOv9ai+ZY3Fp7Q==",
      "path": "system.net.http/4.3.4",
      "hashPath": "system.net.http.4.3.4.nupkg.sha512"
    },
    "System.Net.Primitives/4.3.0": {
      "type": "package",
      "serviceable": true,
      "sha512": "sha512-qOu+hDwFwoZPbzPvwut2qATe3ygjeQBDQj91xlsaqGFQUI5i4ZnZb8yyQuLGpDGivEPIt8EJkd1BVzVoP31FXA==",
      "path": "system.net.primitives/4.3.0",
      "hashPath": "system.net.primitives.4.3.0.nupkg.sha512"
    },
    "System.Reflection/4.3.0": {
      "type": "package",
      "serviceable": true,
      "sha512": "sha512-KMiAFoW7MfJGa9nDFNcfu+FpEdiHpWgTcS2HdMpDvt9saK3y/G4GwprPyzqjFH9NTaGPQeWNHU+iDlDILj96aQ==",
      "path": "system.reflection/4.3.0",
      "hashPath": "system.reflection.4.3.0.nupkg.sha512"
    },
    "System.Reflection.Primitives/4.3.0": {
      "type": "package",
      "serviceable": true,
      "sha512": "sha512-5RXItQz5As4xN2/YUDxdpsEkMhvw3e6aNveFXUn4Hl/udNTCNhnKp8lT9fnc3MhvGKh1baak5CovpuQUXHAlIA==",
      "path": "system.reflection.primitives/4.3.0",
      "hashPath": "system.reflection.primitives.4.3.0.nupkg.sha512"
    },
    "System.Resources.ResourceManager/4.3.0": {
      "type": "package",
      "serviceable": true,
      "sha512": "sha512-/zrcPkkWdZmI4F92gL/TPumP98AVDu/Wxr3CSJGQQ+XN6wbRZcyfSKVoPo17ilb3iOr0cCRqJInGwNMolqhS8A==",
      "path": "system.resources.resourcemanager/4.3.0",
      "hashPath": "system.resources.resourcemanager.4.3.0.nupkg.sha512"
    },
    "System.Runtime/4.3.0": {
      "type": "package",
      "serviceable": true,
      "sha512": "sha512-JufQi0vPQ0xGnAczR13AUFglDyVYt4Kqnz1AZaiKZ5+GICq0/1MH/mO/eAJHt/mHW1zjKBJd7kV26SrxddAhiw==",
      "path": "system.runtime/4.3.0",
      "hashPath": "system.runtime.4.3.0.nupkg.sha512"
    },
    "System.Runtime.CompilerServices.Unsafe/4.4.0": {
      "type": "package",
      "serviceable": true,
      "sha512": "sha512-0D85ti9IcUxWql213d4WE+f2JjNzRzHmEaG34qiA3hD7G8O4i0Mgr+Rutkn4pmrbrW+ABY4vzpECgHmdw+vTjQ==",
      "path": "system.runtime.compilerservices.unsafe/4.4.0",
      "hashPath": "system.runtime.compilerservices.unsafe.4.4.0.nupkg.sha512"
    },
    "System.Runtime.Extensions/4.3.0": {
      "type": "package",
      "serviceable": true,
      "sha512": "sha512-guW0uK0fn5fcJJ1tJVXYd7/1h5F+pea1r7FLSOz/f8vPEqbR2ZAknuRDvTQ8PzAilDveOxNjSfr0CHfIQfFk8g==",
      "path": "system.runtime.extensions/4.3.0",
      "hashPath": "system.runtime.extensions.4.3.0.nupkg.sha512"
    },
    "System.Runtime.Handles/4.3.0": {
      "type": "package",
      "serviceable": true,
      "sha512": "sha512-OKiSUN7DmTWeYb3l51A7EYaeNMnvxwE249YtZz7yooT4gOZhmTjIn48KgSsw2k2lYdLgTKNJw/ZIfSElwDRVgg==",
      "path": "system.runtime.handles/4.3.0",
      "hashPath": "system.runtime.handles.4.3.0.nupkg.sha512"
    },
    "System.Runtime.InteropServices/4.3.0": {
      "type": "package",
      "serviceable": true,
      "sha512": "sha512-uv1ynXqiMK8mp1GM3jDqPCFN66eJ5w5XNomaK2XD+TuCroNTLFGeZ+WCmBMcBDyTFKou3P6cR6J/QsaqDp7fGQ==",
      "path": "system.runtime.interopservices/4.3.0",
      "hashPath": "system.runtime.interopservices.4.3.0.nupkg.sha512"
    },
    "System.Runtime.Numerics/4.3.0": {
      "type": "package",
      "serviceable": true,
      "sha512": "sha512-yMH+MfdzHjy17l2KESnPiF2dwq7T+xLnSJar7slyimAkUh/gTrS9/UQOtv7xarskJ2/XDSNvfLGOBQPjL7PaHQ==",
      "path": "system.runtime.numerics/4.3.0",
      "hashPath": "system.runtime.numerics.4.3.0.nupkg.sha512"
    },
    "System.Security.Cryptography.Algorithms/4.3.0": {
      "type": "package",
      "serviceable": true,
      "sha512": "sha512-W1kd2Y8mYSCgc3ULTAZ0hOP2dSdG5YauTb1089T0/kRcN2MpSAW1izOFROrJgxSlMn3ArsgHXagigyi+ibhevg==",
      "path": "system.security.cryptography.algorithms/4.3.0",
      "hashPath": "system.security.cryptography.algorithms.4.3.0.nupkg.sha512"
    },
    "System.Security.Cryptography.Cng/4.3.0": {
      "type": "package",
      "serviceable": true,
      "sha512": "sha512-03idZOqFlsKRL4W+LuCpJ6dBYDUWReug6lZjBa3uJWnk5sPCUXckocevTaUA8iT/MFSrY/2HXkOt753xQ/cf8g==",
      "path": "system.security.cryptography.cng/4.3.0",
      "hashPath": "system.security.cryptography.cng.4.3.0.nupkg.sha512"
    },
    "System.Security.Cryptography.Csp/4.3.0": {
      "type": "package",
      "serviceable": true,
      "sha512": "sha512-X4s/FCkEUnRGnwR3aSfVIkldBmtURMhmexALNTwpjklzxWU7yjMk7GHLKOZTNkgnWnE0q7+BCf9N2LVRWxewaA==",
      "path": "system.security.cryptography.csp/4.3.0",
      "hashPath": "system.security.cryptography.csp.4.3.0.nupkg.sha512"
    },
    "System.Security.Cryptography.Encoding/4.3.0": {
      "type": "package",
      "serviceable": true,
      "sha512": "sha512-1DEWjZZly9ae9C79vFwqaO5kaOlI5q+3/55ohmq/7dpDyDfc8lYe7YVxJUZ5MF/NtbkRjwFRo14yM4OEo9EmDw==",
      "path": "system.security.cryptography.encoding/4.3.0",
      "hashPath": "system.security.cryptography.encoding.4.3.0.nupkg.sha512"
    },
    "System.Security.Cryptography.OpenSsl/4.3.0": {
      "type": "package",
      "serviceable": true,
      "sha512": "sha512-h4CEgOgv5PKVF/HwaHzJRiVboL2THYCou97zpmhjghx5frc7fIvlkY1jL+lnIQyChrJDMNEXS6r7byGif8Cy4w==",
      "path": "system.security.cryptography.openssl/4.3.0",
      "hashPath": "system.security.cryptography.openssl.4.3.0.nupkg.sha512"
    },
    "System.Security.Cryptography.Primitives/4.3.0": {
      "type": "package",
      "serviceable": true,
      "sha512": "sha512-7bDIyVFNL/xKeFHjhobUAQqSpJq9YTOpbEs6mR233Et01STBMXNAc/V+BM6dwYGc95gVh/Zf+iVXWzj3mE8DWg==",
      "path": "system.security.cryptography.primitives/4.3.0",
      "hashPath": "system.security.cryptography.primitives.4.3.0.nupkg.sha512"
    },
    "System.Security.Cryptography.X509Certificates/4.3.0": {
      "type": "package",
      "serviceable": true,
      "sha512": "sha512-t2Tmu6Y2NtJ2um0RtcuhP7ZdNNxXEgUm2JeoA/0NvlMjAhKCnM1NX07TDl3244mVp3QU6LPEhT3HTtH1uF7IYw==",
      "path": "system.security.cryptography.x509certificates/4.3.0",
      "hashPath": "system.security.cryptography.x509certificates.4.3.0.nupkg.sha512"
    },
    "System.Text.Encoding/4.3.0": {
      "type": "package",
      "serviceable": true,
      "sha512": "sha512-BiIg+KWaSDOITze6jGQynxg64naAPtqGHBwDrLaCtixsa5bKiR8dpPOHA7ge3C0JJQizJE+sfkz1wV+BAKAYZw==",
      "path": "system.text.encoding/4.3.0",
      "hashPath": "system.text.encoding.4.3.0.nupkg.sha512"
    },
    "System.Threading/4.3.0": {
      "type": "package",
      "serviceable": true,
      "sha512": "sha512-VkUS0kOBcUf3Wwm0TSbrevDDZ6BlM+b/HRiapRFWjM5O0NS0LviG0glKmFK+hhPDd1XFeSdU1GmlLhb2CoVpIw==",
      "path": "system.threading/4.3.0",
      "hashPath": "system.threading.4.3.0.nupkg.sha512"
    },
    "System.Threading.Tasks/4.3.0": {
      "type": "package",
      "serviceable": true,
      "sha512": "sha512-LbSxKEdOUhVe8BezB/9uOGGppt+nZf6e1VFyw6v3DN6lqitm0OSn2uXMOdtP0M3W4iMcqcivm2J6UgqiwwnXiA==",
      "path": "system.threading.tasks/4.3.0",
      "hashPath": "system.threading.tasks.4.3.0.nupkg.sha512"
    },
    "LogAnalyticsWrapper/1.0.0.0": {
      "type": "reference",
      "serviceable": false,
      "sha512": ""
    }
  }
}